23.217421054 -18.03633418
24.0000214511 -18.93500719
24.7997583537 -19.67706108
25.6173275667 -20.28355474
26.4526706107 -20.77162457
27.305978616 -21.1509295
28.1771649197 -21.43516146
29.0669704196 -21.64135685
29.9753142106 -21.77012661
30.9023874228 -21.83464034
31.8483811863 -21.84442262
32.8131791478 -21.80635916
33.7975812847 -21.72624239
34.8014773028 -21.60986135
35.8250583322 -21.45937864
36.8685155029 -21.28013242
37.9317012641 -21.07639371
39.015477687 -20.85226652
40.1197035812 -20.61124693
41.2445700768 -20.35696655
42.38990358 -20.09162641
